β;m;L;T;Nconf;hits;fitη;fitπ;fit_sigma;fit_a0;fit_rho;mπ;mρ;ma0;mη;mσ;P;mπ/mρ;mπL
2.0;-0.947;20;32;1020;300;-1;(10, 16);-1;-1;(10, 16);0.3735(13);0.540(5);NaN;NaN;NaN;0.56734(2);0.690(7);7.47(3)
2.0;-0.94;14;24;1851;192;-1;(8, 12);-1;-1;(9, 12);0.4576(14);0.612(4);NaN;NaN;NaN;0.56516(3);0.746(6);6.40(2)
2.0;-0.935;16;32;951;256;(6, 11);(9, 16);-1;-1;(9, 16);0.4946(14);0.644(4);NaN;0.60(3);NaN;0.563654(28);0.767(5);7.91(2)
2.0;-0.93;14;24;1481;256;-1;(8, 12);-1;-1;(9, 12);0.5350(14);0.679(3);NaN;NaN;NaN;0.56245(3);0.787(4);7.491(19)
2.0;-0.925;14;24;1206;192;-1;(8, 12);-1;-1;(9, 12);0.5713(14);0.708(3);NaN;NaN;NaN;0.56119(3);0.806(4);7.999(19)
2.0;-0.92;12;24;2401;192;-1;(7, 12);-1;-1;(8, 12);0.6102(8);0.7432(14);NaN;NaN;NaN;0.559983(29);0.8210(19);7.323(10)
2.0;-0.9;12;24;500;128;-1;(7, 12);-1;-1;(8, 12);0.7183(14);0.832(2);NaN;NaN;NaN;0.55571(6);0.862(3);8.620(17)
2.0;-0.88;10;20;2582;128;-1;(8, 10);-1;-1;(9, 10);0.8120(11);0.9169(19);NaN;NaN;NaN;0.55225(4);0.885(2);8.120(11)
7.2;-0.799;32;40;451;224;-1;(15, 20);-1;-1;(15, 20);0.2527(5);0.377(2);NaN;NaN;NaN;0.590862(5);0.668(4);8.087(16)
7.2;-0.794;28;36;504;288;-1;(10, 18);-1;-1;(11, 18);0.2882(4);0.4055(11);NaN;NaN;NaN;0.590452(7);0.710(2);8.072(11)
7.2;-0.79;24;36;500;320;-1;(12, 18);-1;-1;(13, 18);0.3127(8);0.421(3);NaN;NaN;NaN;0.590127(9);0.742(6);7.505(19)
7.2;-0.78;24;36;508;384;-1;(12, 18);-1;-1;(13, 18);0.3700(7);0.466(2);NaN;NaN;NaN;0.589278(8);0.793(4);8.882(17)
7.2;-0.77;24;36;200;384;(5, 10);(11, 18);-1;-1;(12, 18);0.4236(10);0.510(3);NaN;0.459(7);NaN;0.588460(12);0.829(5);10.16(2)
7.2;-0.76;16;36;200;384;-1;(11, 18);-1;-1;(12, 18);0.4715(10);0.554(2);NaN;NaN;NaN;0.587666(25);0.850(4);7.544(17)
6.9;-0.924;24;32;492;320;-1;(9, 16);-1;-1;(10, 16);0.3420(5);0.5157(17);NaN;NaN;NaN;0.56317(2);0.663(2);8.208(12)
6.9;-0.92;24;32;503;484;(5, 12);(7, 16);-1;-1;(8, 16);0.3898(5);0.5540(12);NaN;0.486(16);NaN;0.562075(13);0.7036(17);9.356(12)
6.9;-0.92;16;32;176;128;(5, 9);(9, 16);-1;-1;(9, 16);0.3889(14);0.558(5);NaN;0.50(2);NaN;0.56212(5);0.696(7);6.22(2)
6.9;-0.91;16;32;435;256;(5, 11);(8, 16);-1;-1;(9, 16);0.4885(12);0.634(4);NaN;0.560(13);NaN;0.55935(3);0.769(5);7.817(19)
6.9;-0.91;14;24;513;256;-1;(8, 12);-1;-1;(9, 12);0.4902(16);0.639(5);NaN;NaN;NaN;0.55941(3);0.766(6);6.86(2)
6.9;-0.9;16;32;547;512;-1;(9, 16);-1;-1;(10, 16);0.5629(8);0.690(2);NaN;NaN;NaN;0.556921(25);0.815(3);9.006(13)
6.9;-0.9;14;24;942;128;(5, 10);(8, 12);-1;-1;(9, 12);0.5641(10);0.694(2);NaN;0.620(9);NaN;0.556981(26);0.812(3);7.897(14)
6.9;-0.9;12;24;2904;128;(5, 10);(8, 12);-1;-1;(9, 12);0.5663(8);0.6994(18);NaN;0.612(5);NaN;0.557009(18);0.809(2);6.796(9)
6.9;-0.89;14;24;461;128;(6, 11);(8, 12);-1;-1;(9, 12);0.6295(13);0.746(3);NaN;0.69(2);NaN;0.55468(4);0.843(4);8.813(19)
6.9;-0.89;12;24;1019;320;(5, 12);(8, 12);-1;-1;(9, 12);0.6318(12);0.751(3);NaN;0.660(10);NaN;0.55467(3);0.841(3);7.581(15)
6.9;-0.87;12;24;1457;128;-1;(8, 12);-1;-1;(9, 12);0.7437(9);0.8468(17);NaN;NaN;NaN;0.550497(27);0.878(2);8.925(10)
6.9;-0.87;10;20;976;128;-1;(8, 10);-1;-1;(8, 10);0.7470(16);0.857(3);NaN;NaN;NaN;0.55068(5);0.871(3);7.470(16)
