Ensemble,β,am,L,<P>,Delta<P>,amPS,DeltaamPS,afPS,DeltaafPS,amV,DeltaamV,afV,DeltaafV,w0/a,Deltaw0/a,amS,Delta amS,amAV,Delta amAV
DB1M1,6.9,-0.85,32×16^3,0.54675,5E-05,0.8344,0.0011,0.1431,0.0007,0.9275,0.0017,0.2326,0.0015,0.8149,0.0007,1.52,0.04,1.561,0.029
DB1M2,6.9,-0.87,32×16^3,0.55052,6E-05,0.7403,0.0012,0.1299,0.0011,0.8475,0.0019,0.2224,0.0014,0.8654,0.0009,1.44,0.05,1.445,0.026
DB1M3,6.9,-0.89,32×16^3,0.55478,6E-05,0.6276,0.0014,0.1147,0.0008,0.7494,0.0025,0.2056,0.0018,0.9342,0.0011,1.15,0.05,1.315,0.024
DB1M4,6.9,-0.9,32×16^3,0.55696,6E-05,0.5625,0.0021,0.1052,0.0011,0.692,0.003,0.1917,0.0025,0.9784,0.0018,1.290,0.02,1.27,0.03
DB1M5,6.9,-0.91,32×16^3,0.55951,5E-05,0.4813,0.001,0.0943,0.0006,0.622,0.004,0.1777,0.0021,1.0413,0.0019,1.04,0.05,1.16,0.04
DB1M6,6.9,-0.92,32×24^3,0.56204,3E-05,0.3867,0.0011,0.0823,0.0006,0.546,0.004,0.1629,0.002,1.1196,0.0014,1.032,0.025,1.059,0.014
DB1M7,6.9,-0.924,32×24^3,0.56328,4E-05,0.3388,0.0012,0.0765,0.0006,0.517,0.004,0.1564,0.0023,1.1618,0.0013,0.92,0.05,0.97,0.04
DB2M1,7.05,-0.835,36×20^3,0.575267,3E-05,0.4376,0.0014,0.0822,0.0009,0.5517,0.0024,0.1445,0.0014,1.2939,0.0019,0.88,0.03,0.918,0.028
DB2M2,7.05,-0.85,36×24^3,0.577371,3E-05,0.3311,0.0011,0.067,0.0005,0.47,0.003,0.1284,0.002,1.4148,0.0021,0.830,0.016,0.825,0.023
DB2M3,7.05,-0.857,36×32^3,0.578324,2E-05,0.2729,0.0009,0.0612,0.0004,0.4237,0.0029,0.1202,0.0014,1.4836,0.0015,0.777,0.025,0.75,0.03
DB3M1,7.2,-0.7,36×16^3,0.58333,4E-05,0.6902,0.0011,0.0994,0.0009,0.749,0.0017,0.1478,0.0016,1.2965,0.0025,1.046,0.016,1.142,0.016
DB3M2,7.2,-0.73,36×16^3,0.58548,4E-05,0.5898,0.0013,0.0905,0.0008,0.6591,0.0025,0.1408,0.0014,1.3884,0.0036,0.994,0.013,1.036,0.015
DB3M3,7.2,-0.76,36×16^3,0.58767,4E-05,0.47,0.0013,0.0772,0.0006,0.5529,0.0026,0.1269,0.0015,1.5155,0.0028,0.838,0.013,0.879,0.018
DB3M4,7.2,-0.77,36×24^3,0.588461,2E-05,0.4222,0.0008,0.0726,0.0003,0.5112,0.0016,0.1208,0.001,1.5625,0.0021,0.792,0.011,0.847,0.013
DB3M5,7.2,-0.78,36×24^3,0.589257,2E-05,0.3702,0.0009,0.0666,0.0004,0.4664,0.0025,0.1121,0.0015,1.637,0.0029,0.744,0.013,0.789,0.014
DB3M6,7.2,-0.79,36×24^3,0.590084,2E-05,0.3153,0.0009,0.0604,0.0004,0.4264,0.0019,0.1083,0.0009,1.7182,0.0032,0.646,0.018,0.720,0.02
DB3M7,7.2,-0.794,36×28^3,0.590429,1E-05,0.2874,0.0007,0.05755,0.0003,0.4019,0.0023,0.104,0.0011,1.764,0.0018,0.665,0.012,0.698,0.01
DB3M8,7.2,-0.799,40×32^3,0.590869,1E-05,0.2532,0.0007,0.0536,0.0003,0.3772,0.0024,0.099,0.0013,1.8109,0.0023,0.598,0.017,0.650,0.015
DB4M1,7.4,-0.72,48×32^3,0.604999,1E-05,0.319,0.0005,0.05452,0.0003,0.3974,0.0011,0.0905,0.0006,2.1448,0.0025,0.576,0.009,0.623,0.011
DB4M2,7.4,-0.73,48×32^3,0.605519,1E-05,0.2707,0.0006,0.04999,0.0003,0.3548,0.0017,0.0844,0.0009,2.239,0.0034,0.548,0.008,0.560,0.008
DB5M1,7.5,-0.69,48×24^3,0.6119,1E-05,0.3264,0.0009,0.0529,0.0004,0.3941,0.002,0.0832,0.0012,2.3463,0.0084,0.562,0.007,0.594,0.008
